{
  "status": "success",
  "data": {
    "menus": [
      {
        "id": "16",
        "caption": "ancak_panen",
        "icon": "ic_ancak_panen",
        "activity": "com.simp.hms.activity.ancakpanen.AncakPanenActivity"
      },
      {
        "id": "17",
        "caption": "ancak_panen_history",
        "icon": "ic_ancak_panen_history",
        "activity": "com.simp.hms.activity.ancakpanen.AncakPanenHistoryActivity"
      },
      {
        "id": "18",
        "caption": "export",
        "icon": "ic_export",
        "activity": "com.simp.hms.activity.other.ExportActivity"
      },
      {
        "id": "19",
        "caption": "import_report",
        "icon": "ic_import",
        "activity": "com.simp.hms.activity.other.ImportActivity"
      },
      {
        "id": "20",
        "caption": "settings",
        "icon": "ic_settings",
        "activity": "com.simp.hms.activity.other.SettingsUniversalActivity"
      }
    ]
  },
  "message": "success"
}