{
  "status": "success",
  "data": {
    "menus": [
      {
        "id": "1",
        "caption": "block_planning_block_planning",
        "icon": "ic_block",
        "activity": "com.simp.hms.activity.other.BlockPlanningActivity"
      },
      {
        "id": "4",
        "caption": "buku_panen",
        "icon": "ic_taksasi_history",
        "activity": "com.simp.hms.activity.bpn.BPNActivity"
      },
      {
        "id": "7",
        "caption": "buku_panen_history",
        "icon": "ic_bpn_history",
        "activity": "com.simp.hms.activity.bpn.BPNHistoryActivity"
      },
      {
        "id": "8",
        "caption": "report_bpn",
        "icon": "ic_bpn_report",
        "activity": "com.simp.hms.activity.bpn.BPNReportHarvesterActivity"
      },
      {
        "id": "11",
        "caption": "spbs",
        "icon": "ic_spbs",
        "activity": "com.simp.hms.activity.spbs.SPBSActivity"
      },
      {
        "id": "14",
        "caption": "spbs_history",
        "icon": "ic_spbs_history",
        "activity": "com.simp.hms.activity.spbs.SPBSHistoryActivity"
      },
      {
        "id": "15",
        "caption": "report_spbs",
        "icon": "ic_spbs_report",
        "activity": "com.simp.hms.activity.spbs.SPBSReportNumberActivity"
      },
      {
        "id": "25",
        "caption": "spbs_krani",
        "icon": "ic_taksasi",
        "activity": "com.simp.hms.activity.spbskranibluetooth.SPBSKraniActivity"
      },
      {
        "id": "29",
        "caption": "spbs_wb",
        "icon": "ic_bpn_history",
        "activity": "com.simp.hms.activity.spbskranibluetooth.SPBSWBScanActivity"
      },
      {
        "id": "26",
        "caption": "export",
        "icon": "ic_export",
        "activity": "com.simp.hms.activity.other.ExportActivity"
      },
      {
        "id": "27",
        "caption": "import_report",
        "icon": "ic_import",
        "activity": "com.simp.hms.activity.other.ImportActivity"
      },
      {
        "id": "28",
        "caption": "settings",
        "icon": "ic_settings",
        "activity": "com.simp.hms.activity.other.SettingsUniversalActivity"
      }
    ]
  },
  "message": "success"
}